{
    "key": "group_5409de8b488f4",
    "title": "Layouts",
    "fields": [
        {
            "key": "field_5409d668d395b",
            "label": "Layout",
            "name": "layout",
            "type": "flexible_content",
            "instructions": "",
            "required": 0,
            "conditional_logic": 0,
            "wrapper": {
                "width": "",
                "class": "",
                "id": ""
            },
            "layouts": {
                "5409de8b4c6b9": {
                    "key": "5409de8b4c6b9",
                    "name": "slider",
                    "label": "Slider \/ tekst kolonne",
                    "display": "block",
                    "sub_fields": [
                        {
                            "key": "field_5efb31c3ecccd",
                            "label": "Sektions indstillinger",
                            "name": "",
                            "type": "tab",
                            "instructions": "",
                            "required": 0,
                            "conditional_logic": 0,
                            "wrapper": {
                                "width": "",
                                "class": "",
                                "id": ""
                            },
                            "placement": "top",
                            "endpoint": 0
                        },
                        {
                            "key": "field_5efb31feeccce",
                            "label": "Margin",
                            "name": "margin",
                            "type": "select",
                            "instructions": "Vælg om sektionen skal have margin i top, bund, begge eller ingen.",
                            "required": 0,
                            "conditional_logic": 0,
                            "wrapper": {
                                "width": "50",
                                "class": "",
                                "id": ""
                            },
                            "choices": {
                                "none": "Ingen",
                                "top": "Top",
                                "bottom": "Bund",
                                "both": "Begge"
                            },
                            "default_value": "none",
                            "allow_null": 0,
                            "multiple": 0,
                            "ui": 0,
                            "return_format": "value",
                            "ajax": 0,
                            "placeholder": ""
                        },
                        {
                            "key": "field_5efb3210ecccf",
                            "label": "Baggrundsfarve",
                            "name": "bg",
                            "type": "select",
                            "instructions": "Vælg sektionens baggrundsfarve",
                            "required": 0,
                            "conditional_logic": 0,
                            "wrapper": {
                                "width": "50",
                                "class": "",
                                "id": ""
                            },
                            "choices": {
                                "none": "Ingen"
                            },
                            "default_value": "none",
                            "allow_null": 0,
                            "multiple": 0,
                            "ui": 0,
                            "return_format": "value",
                            "ajax": 0,
                            "placeholder": ""
                        },
                        {
                            "key": "field_5efb337d0eaca",
                            "label": "Slider placering",
                            "name": "slider_position",
                            "type": "radio",
                            "instructions": "",
                            "required": 0,
                            "conditional_logic": 0,
                            "wrapper": {
                                "width": "50",
                                "class": "",
                                "id": ""
                            },
                            "choices": {
                                "right": "Højre",
                                "left": "Venstre"
                            },
                            "allow_null": 0,
                            "other_choice": 0,
                            "default_value": "",
                            "layout": "vertical",
                            "return_format": "value",
                            "save_other_choice": 0
                        },
                        {
                            "key": "field_5efb3a2ea91d3",
                            "label": "Offset",
                            "name": "offset",
                            "type": "radio",
                            "instructions": "",
                            "required": 0,
                            "conditional_logic": 0,
                            "wrapper": {
                                "width": "50",
                                "class": "",
                                "id": ""
                            },
                            "choices": {
                                "Flexible": "Flexible",
                                "2 to 1": "2 to 1",
                                "1 to 2": "1 to 2"
                            },
                            "allow_null": 0,
                            "other_choice": 0,
                            "default_value": "",
                            "layout": "vertical",
                            "return_format": "value",
                            "save_other_choice": 0
                        },
                        {
                            "key": "field_5efb31b3ecccc",
                            "label": "Slides",
                            "name": "",
                            "type": "tab",
                            "instructions": "",
                            "required": 0,
                            "conditional_logic": 0,
                            "wrapper": {
                                "width": "",
                                "class": "",
                                "id": ""
                            },
                            "placement": "top",
                            "endpoint": 0
                        },
                        {
                            "key": "field_5b9f5de9c6b23",
                            "label": "Slides",
                            "name": "slides",
                            "type": "repeater",
                            "instructions": "",
                            "required": 0,
                            "conditional_logic": 0,
                            "wrapper": {
                                "width": "",
                                "class": "",
                                "id": ""
                            },
                            "collapsed": "",
                            "min": 0,
                            "max": 0,
                            "layout": "block",
                            "button_label": "Tilføj slides",
                            "sub_fields": [
                                {
                                    "key": "field_5b9f5dfac6b24",
                                    "label": "Baggrundsbillede",
                                    "name": "slides_bg",
                                    "type": "image",
                                    "instructions": "",
                                    "required": 0,
                                    "conditional_logic": 0,
                                    "wrapper": {
                                        "width": "",
                                        "class": "",
                                        "id": ""
                                    },
                                    "return_format": "array",
                                    "preview_size": "thumbnail",
                                    "library": "all",
                                    "min_width": "",
                                    "min_height": "",
                                    "min_size": "",
                                    "max_width": "",
                                    "max_height": "",
                                    "max_size": "",
                                    "mime_types": ""
                                }
                            ]
                        },
                        {
                            "key": "field_5efb027386cad",
                            "label": "Tekst kolonne (valgfri)",
                            "name": "",
                            "type": "tab",
                            "instructions": "",
                            "required": 0,
                            "conditional_logic": 0,
                            "wrapper": {
                                "width": "",
                                "class": "",
                                "id": ""
                            },
                            "placement": "top",
                            "endpoint": 0
                        },
                        {
                            "key": "field_5efb029d86cae",
                            "label": "Overskrift",
                            "name": "slides_title",
                            "type": "text",
                            "instructions": "",
                            "required": 0,
                            "conditional_logic": 0,
                            "wrapper": {
                                "width": "50",
                                "class": "",
                                "id": ""
                            },
                            "default_value": "",
                            "placeholder": "",
                            "prepend": "",
                            "append": "",
                            "maxlength": ""
                        },
                        {
                            "key": "field_5efb031f86cb0",
                            "label": "Under overskrift",
                            "name": "slides_sub_title",
                            "type": "text",
                            "instructions": "",
                            "required": 0,
                            "conditional_logic": 0,
                            "wrapper": {
                                "width": "50",
                                "class": "",
                                "id": ""
                            },
                            "default_value": "",
                            "placeholder": "",
                            "prepend": "",
                            "append": "",
                            "maxlength": ""
                        },
                        {
                            "key": "field_5efb033986cb1",
                            "label": "Tekst",
                            "name": "slides_text",
                            "type": "wysiwyg",
                            "instructions": "",
                            "required": 0,
                            "conditional_logic": 0,
                            "wrapper": {
                                "width": "",
                                "class": "",
                                "id": ""
                            },
                            "default_value": "",
                            "tabs": "all",
                            "toolbar": "full",
                            "media_upload": 1,
                            "delay": 0
                        }
                    ],
                    "min": "",
                    "max": ""
                },
                "5412c2812a2f5": {
                    "key": "5412c2812a2f5",
                    "name": "wysiwygs",
                    "label": "WYSIWYGs",
                    "display": "block",
                    "sub_fields": [
                        {
                            "key": "field_5412c28a2a2f6",
                            "label": "Overskrift",
                            "name": "header",
                            "type": "text",
                            "instructions": "",
                            "required": 0,
                            "conditional_logic": 0,
                            "wrapper": {
                                "width": "50",
                                "class": "",
                                "id": ""
                            },
                            "default_value": "",
                            "placeholder": "",
                            "prepend": "",
                            "append": "",
                            "maxlength": ""
                        },
                        {
                            "key": "field_5efb1c3b043e4",
                            "label": "Under overskrift",
                            "name": "sub_header",
                            "type": "text",
                            "instructions": "",
                            "required": 0,
                            "conditional_logic": 0,
                            "wrapper": {
                                "width": "50",
                                "class": "",
                                "id": ""
                            },
                            "default_value": "",
                            "placeholder": "",
                            "prepend": "",
                            "append": "",
                            "maxlength": ""
                        },
                        {
                            "key": "field_5412ce61ab045",
                            "label": "Offset",
                            "name": "offset",
                            "type": "radio",
                            "instructions": "",
                            "required": 0,
                            "conditional_logic": 0,
                            "wrapper": {
                                "width": "",
                                "class": "",
                                "id": ""
                            },
                            "choices": {
                                "Flexible": "Flexible",
                                "2 to 1": "2 to 1",
                                "1 to 2": "1 to 2"
                            },
                            "allow_null": 0,
                            "other_choice": 0,
                            "default_value": "",
                            "layout": "vertical",
                            "return_format": "value",
                            "save_other_choice": 0
                        },
                        {
                            "key": "field_5b9fa68225296",
                            "label": "Baggrundsfarve",
                            "name": "bg",
                            "type": "select",
                            "instructions": "Vælg sektionens baggrundsfarve",
                            "required": 0,
                            "conditional_logic": 0,
                            "wrapper": {
                                "width": "50",
                                "class": "",
                                "id": ""
                            },
                            "choices": {
                                "none": "Ingen"
                            },
                            "default_value": "none",
                            "allow_null": 0,
                            "multiple": 0,
                            "ui": 0,
                            "return_format": "value",
                            "ajax": 0,
                            "placeholder": ""
                        },
                        {
                            "key": "field_5b9fa6f98efcb",
                            "label": "Margin",
                            "name": "margin",
                            "type": "select",
                            "instructions": "Vælg om sektionen skal have margin i top, bund, begge eller ingen.",
                            "required": 0,
                            "conditional_logic": 0,
                            "wrapper": {
                                "width": "50",
                                "class": "",
                                "id": ""
                            },
                            "choices": {
                                "none": "Ingen",
                                "top": "Top",
                                "bottom": "Bund",
                                "both": "Begge"
                            },
                            "default_value": "none",
                            "allow_null": 0,
                            "multiple": 0,
                            "ui": 0,
                            "return_format": "value",
                            "ajax": 0,
                            "placeholder": ""
                        },
                        {
                            "key": "field_5412c2c02a2f7",
                            "label": "WYSIWYGs",
                            "name": "wysiwygs",
                            "type": "repeater",
                            "instructions": "<strong>Accordion shortcode:<\/strong> <code>[fold titel=\"Din accordion overskrift her\"]Dit indhold her[\/fold]<\/code><br>\r\n<strong>YouTube shortcode:<\/strong> <code>[yt_shortcode url=\"Din YouTube embed url her\"][\/yt_shortcode]<\/code>",
                            "required": 0,
                            "conditional_logic": 0,
                            "wrapper": {
                                "width": "",
                                "class": "",
                                "id": ""
                            },
                            "collapsed": "",
                            "min": 0,
                            "max": 0,
                            "layout": "table",
                            "button_label": "Tilføj WYSIWYG's",
                            "sub_fields": [
                                {
                                    "key": "field_5412c2da2a2f8",
                                    "label": "WYSIWYG",
                                    "name": "wysiwyg",
                                    "type": "wysiwyg",
                                    "instructions": "",
                                    "required": 0,
                                    "conditional_logic": 0,
                                    "wrapper": {
                                        "width": "",
                                        "class": "",
                                        "id": ""
                                    },
                                    "default_value": "",
                                    "tabs": "all",
                                    "toolbar": "full",
                                    "media_upload": 1,
                                    "delay": 0
                                }
                            ]
                        }
                    ],
                    "min": "",
                    "max": ""
                },
                "layout_5ba0a94143236": {
                    "key": "layout_5ba0a94143236",
                    "name": "link-boxes",
                    "label": "Link boxes",
                    "display": "block",
                    "sub_fields": [
                        {
                            "key": "field_5ba0a9f94323e",
                            "label": "Sektions indstillinger",
                            "name": "",
                            "type": "tab",
                            "instructions": "",
                            "required": 0,
                            "conditional_logic": 0,
                            "wrapper": {
                                "width": "",
                                "class": "",
                                "id": ""
                            },
                            "placement": "top",
                            "endpoint": 0
                        },
                        {
                            "key": "field_5ba0a94143237",
                            "label": "Overskrift",
                            "name": "header",
                            "type": "text",
                            "instructions": "",
                            "required": 0,
                            "conditional_logic": 0,
                            "wrapper": {
                                "width": "75",
                                "class": "",
                                "id": ""
                            },
                            "default_value": "",
                            "placeholder": "",
                            "prepend": "",
                            "append": "",
                            "maxlength": ""
                        },
                        {
                            "key": "field_5efafd02ea8d9",
                            "label": "Centrer overskrift",
                            "name": "header_center",
                            "type": "true_false",
                            "instructions": "",
                            "required": 0,
                            "conditional_logic": 0,
                            "wrapper": {
                                "width": "25",
                                "class": "",
                                "id": ""
                            },
                            "message": "",
                            "default_value": 0,
                            "ui": 0,
                            "ui_on_text": "",
                            "ui_off_text": ""
                        },
                        {
                            "key": "field_5ba0a94143239",
                            "label": "Baggrundsfarve",
                            "name": "bg",
                            "type": "select",
                            "instructions": "Vælg sektionens baggrundsfarve.",
                            "required": 0,
                            "conditional_logic": 0,
                            "wrapper": {
                                "width": "50",
                                "class": "",
                                "id": ""
                            },
                            "choices": {
                                "none": "Ingen"
                            },
                            "default_value": "none",
                            "allow_null": 0,
                            "multiple": 0,
                            "ui": 0,
                            "return_format": "value",
                            "ajax": 0,
                            "placeholder": ""
                        },
                        {
                            "key": "field_5ba0a9414323a",
                            "label": "Margin",
                            "name": "margin",
                            "type": "select",
                            "instructions": "Vælg om sektionen skal have margin i top, bund, begge eller ingen.",
                            "required": 0,
                            "conditional_logic": 0,
                            "wrapper": {
                                "width": "50",
                                "class": "",
                                "id": ""
                            },
                            "choices": {
                                "none": "Ingen",
                                "top": "Top",
                                "bottom": "Bund",
                                "both": "Begge"
                            },
                            "default_value": "none",
                            "allow_null": 0,
                            "multiple": 0,
                            "ui": 0,
                            "return_format": "value",
                            "ajax": 0,
                            "placeholder": ""
                        },
                        {
                            "key": "field_5ba0aa164323f",
                            "label": "Link boxes",
                            "name": "",
                            "type": "tab",
                            "instructions": "",
                            "required": 0,
                            "conditional_logic": 0,
                            "wrapper": {
                                "width": "",
                                "class": "",
                                "id": ""
                            },
                            "placement": "top",
                            "endpoint": 0
                        },
                        {
                            "key": "field_5ba0a9414323b",
                            "label": "Link boxes",
                            "name": "linkbox",
                            "type": "repeater",
                            "instructions": "",
                            "required": 0,
                            "conditional_logic": 0,
                            "wrapper": {
                                "width": "",
                                "class": "",
                                "id": ""
                            },
                            "collapsed": "",
                            "min": 0,
                            "max": 0,
                            "layout": "block",
                            "button_label": "Tilføj Link boxes",
                            "sub_fields": [
                                {
                                    "key": "field_5ba0b6202589d",
                                    "label": "Billede",
                                    "name": "icon",
                                    "type": "image",
                                    "instructions": "",
                                    "required": 0,
                                    "conditional_logic": 0,
                                    "wrapper": {
                                        "width": "",
                                        "class": "",
                                        "id": ""
                                    },
                                    "return_format": "array",
                                    "preview_size": "thumbnail",
                                    "library": "all",
                                    "min_width": "",
                                    "min_height": "",
                                    "min_size": "",
                                    "max_width": "",
                                    "max_height": "",
                                    "max_size": "",
                                    "mime_types": ""
                                },
                                {
                                    "key": "field_5ba0a9414323c",
                                    "label": "Overskrift",
                                    "name": "title",
                                    "type": "text",
                                    "instructions": "",
                                    "required": 0,
                                    "conditional_logic": 0,
                                    "wrapper": {
                                        "width": "",
                                        "class": "",
                                        "id": ""
                                    },
                                    "default_value": "",
                                    "placeholder": "",
                                    "prepend": "",
                                    "append": "",
                                    "maxlength": ""
                                },
                                {
                                    "key": "field_5ba0a9d04323d",
                                    "label": "Text",
                                    "name": "text",
                                    "type": "textarea",
                                    "instructions": "",
                                    "required": 0,
                                    "conditional_logic": 0,
                                    "wrapper": {
                                        "width": "",
                                        "class": "",
                                        "id": ""
                                    },
                                    "default_value": "",
                                    "placeholder": "",
                                    "maxlength": "",
                                    "rows": "",
                                    "new_lines": ""
                                },
                                {
                                    "key": "field_5c7e68743d3df",
                                    "label": "Link",
                                    "name": "link",
                                    "type": "page_link",
                                    "instructions": "",
                                    "required": 0,
                                    "conditional_logic": 0,
                                    "wrapper": {
                                        "width": "50",
                                        "class": "",
                                        "id": ""
                                    },
                                    "post_type": "",
                                    "taxonomy": "",
                                    "allow_null": 0,
                                    "allow_archives": 1,
                                    "multiple": 0
                                },
                                {
                                    "key": "field_5ef9f5269c0d3",
                                    "label": "Link tekst",
                                    "name": "link_text",
                                    "type": "text",
                                    "instructions": "",
                                    "required": 0,
                                    "conditional_logic": 0,
                                    "wrapper": {
                                        "width": "50",
                                        "class": "",
                                        "id": ""
                                    },
                                    "default_value": "",
                                    "placeholder": "",
                                    "prepend": "",
                                    "append": "",
                                    "maxlength": ""
                                }
                            ]
                        }
                    ],
                    "min": "",
                    "max": ""
                },
                "layout_5f06fb4bce444": {
                    "key": "layout_5f06fb4bce444",
                    "name": "flights-teaser",
                    "label": "Fly teaser",
                    "display": "block",
                    "sub_fields": [
                        {
                            "key": "field_5f06fb4bce445",
                            "label": "Sektions indstillinger",
                            "name": "",
                            "type": "tab",
                            "instructions": "",
                            "required": 0,
                            "conditional_logic": 0,
                            "wrapper": {
                                "width": "",
                                "class": "",
                                "id": ""
                            },
                            "placement": "top",
                            "endpoint": 0
                        },
                        {
                            "key": "field_5f06fb4bce446",
                            "label": "Overskrift",
                            "name": "header",
                            "type": "text",
                            "instructions": "",
                            "required": 0,
                            "conditional_logic": 0,
                            "wrapper": {
                                "width": "75",
                                "class": "",
                                "id": ""
                            },
                            "default_value": "",
                            "placeholder": "",
                            "prepend": "",
                            "append": "",
                            "maxlength": ""
                        },
                        {
                            "key": "field_5f06fb4bce447",
                            "label": "Centrer overskrift",
                            "name": "header_center",
                            "type": "true_false",
                            "instructions": "",
                            "required": 0,
                            "conditional_logic": 0,
                            "wrapper": {
                                "width": "25",
                                "class": "",
                                "id": ""
                            },
                            "message": "",
                            "default_value": 0,
                            "ui": 0,
                            "ui_on_text": "",
                            "ui_off_text": ""
                        },
                        {
                            "key": "field_5f06fb4bce448",
                            "label": "Baggrundsfarve",
                            "name": "bg",
                            "type": "select",
                            "instructions": "Vælg sektionens baggrundsfarve.",
                            "required": 0,
                            "conditional_logic": 0,
                            "wrapper": {
                                "width": "50",
                                "class": "",
                                "id": ""
                            },
                            "choices": {
                                "none": "Ingen"
                            },
                            "default_value": "none",
                            "allow_null": 0,
                            "multiple": 0,
                            "ui": 0,
                            "ajax": 0,
                            "return_format": "value",
                            "placeholder": ""
                        },
                        {
                            "key": "field_5f06fb4bce449",
                            "label": "Margin",
                            "name": "margin",
                            "type": "select",
                            "instructions": "Vælg om sektionen skal have margin i top, bund, begge eller ingen.",
                            "required": 0,
                            "conditional_logic": 0,
                            "wrapper": {
                                "width": "50",
                                "class": "",
                                "id": ""
                            },
                            "choices": {
                                "none": "Ingen",
                                "top": "Top",
                                "bottom": "Bund",
                                "both": "Begge"
                            },
                            "default_value": "none",
                            "allow_null": 0,
                            "multiple": 0,
                            "ui": 0,
                            "ajax": 0,
                            "return_format": "value",
                            "placeholder": ""
                        },
                        {
                            "key": "field_5f06fb4bce44a",
                            "label": "Fly teaser",
                            "name": "",
                            "type": "tab",
                            "instructions": "",
                            "required": 0,
                            "conditional_logic": 0,
                            "wrapper": {
                                "width": "",
                                "class": "",
                                "id": ""
                            },
                            "placement": "top",
                            "endpoint": 0
                        },
                        {
                            "key": "field_5f295ee17e04d",
                            "label": "Intro tekst",
                            "name": "flights_intro_text",
                            "type": "wysiwyg",
                            "instructions": "",
                            "required": 0,
                            "conditional_logic": 0,
                            "wrapper": {
                                "width": "",
                                "class": "",
                                "id": ""
                            },
                            "default_value": "",
                            "tabs": "all",
                            "toolbar": "full",
                            "media_upload": 1,
                            "delay": 0
                        },
                        {
                            "key": "field_5f06fb4bce44b",
                            "label": "Fly teaser",
                            "name": "flights",
                            "type": "repeater",
                            "instructions": "",
                            "required": 0,
                            "conditional_logic": 0,
                            "wrapper": {
                                "width": "",
                                "class": "",
                                "id": ""
                            },
                            "collapsed": "",
                            "min": 0,
                            "max": 0,
                            "layout": "block",
                            "button_label": "Tilføj Fly teaser",
                            "sub_fields": [
                                {
                                    "key": "field_5f06fb4bce44c",
                                    "label": "Billede",
                                    "name": "img",
                                    "type": "image",
                                    "instructions": "",
                                    "required": 0,
                                    "conditional_logic": 0,
                                    "wrapper": {
                                        "width": "",
                                        "class": "",
                                        "id": ""
                                    },
                                    "return_format": "array",
                                    "preview_size": "thumbnail",
                                    "library": "all",
                                    "min_width": "",
                                    "min_height": "",
                                    "min_size": "",
                                    "max_width": "",
                                    "max_height": "",
                                    "max_size": "",
                                    "mime_types": ""
                                },
                                {
                                    "key": "field_5f06fb4bce44d",
                                    "label": "Overskrift",
                                    "name": "title",
                                    "type": "text",
                                    "instructions": "",
                                    "required": 0,
                                    "conditional_logic": 0,
                                    "wrapper": {
                                        "width": "",
                                        "class": "",
                                        "id": ""
                                    },
                                    "default_value": "",
                                    "placeholder": "",
                                    "prepend": "",
                                    "append": "",
                                    "maxlength": ""
                                },
                                {
                                    "key": "field_5f06fb4bce44e",
                                    "label": "Text",
                                    "name": "text",
                                    "type": "textarea",
                                    "instructions": "",
                                    "required": 0,
                                    "conditional_logic": 0,
                                    "wrapper": {
                                        "width": "",
                                        "class": "",
                                        "id": ""
                                    },
                                    "default_value": "",
                                    "placeholder": "",
                                    "maxlength": "",
                                    "rows": "",
                                    "new_lines": ""
                                },
                                {
                                    "key": "field_5f06fb4bce44f",
                                    "label": "Link",
                                    "name": "link",
                                    "type": "page_link",
                                    "instructions": "",
                                    "required": 0,
                                    "conditional_logic": 0,
                                    "wrapper": {
                                        "width": "50",
                                        "class": "",
                                        "id": ""
                                    },
                                    "post_type": "",
                                    "taxonomy": "",
                                    "allow_null": 0,
                                    "allow_archives": 1,
                                    "multiple": 0
                                },
                                {
                                    "key": "field_5f06fb4bce450",
                                    "label": "Link tekst",
                                    "name": "link_text",
                                    "type": "text",
                                    "instructions": "",
                                    "required": 0,
                                    "conditional_logic": 0,
                                    "wrapper": {
                                        "width": "50",
                                        "class": "",
                                        "id": ""
                                    },
                                    "default_value": "",
                                    "placeholder": "",
                                    "prepend": "",
                                    "append": "",
                                    "maxlength": ""
                                }
                            ]
                        }
                    ],
                    "min": "",
                    "max": ""
                },
                "layout_5f15a6cb00fd1": {
                    "key": "layout_5f15a6cb00fd1",
                    "name": "latest-events",
                    "label": "Seneste begivenheder",
                    "display": "block",
                    "sub_fields": [
                        {
                            "key": "field_5f15a6e800fde",
                            "label": "Besked",
                            "name": "",
                            "type": "message",
                            "instructions": "",
                            "required": 0,
                            "conditional_logic": 0,
                            "wrapper": {
                                "width": "",
                                "class": "",
                                "id": ""
                            },
                            "message": "Dette layout henter de seneste oprettede begivenheder ind i dit flexible content layout.",
                            "new_lines": "wpautop",
                            "esc_html": 0
                        }
                    ],
                    "min": "",
                    "max": ""
                },
                "layout_5eff001066c17": {
                    "key": "layout_5eff001066c17",
                    "name": "google-maps",
                    "label": "Google maps",
                    "display": "block",
                    "sub_fields": [
                        {
                            "key": "field_5eff001066c18",
                            "label": "Sektions indstillinger",
                            "name": "",
                            "type": "tab",
                            "instructions": "",
                            "required": 0,
                            "conditional_logic": 0,
                            "wrapper": {
                                "width": "",
                                "class": "",
                                "id": ""
                            },
                            "placement": "top",
                            "endpoint": 0
                        },
                        {
                            "key": "field_5eff001066c19",
                            "label": "Overskrift",
                            "name": "header",
                            "type": "text",
                            "instructions": "",
                            "required": 0,
                            "conditional_logic": 0,
                            "wrapper": {
                                "width": "75",
                                "class": "",
                                "id": ""
                            },
                            "default_value": "",
                            "placeholder": "",
                            "prepend": "",
                            "append": "",
                            "maxlength": ""
                        },
                        {
                            "key": "field_5eff001066c1a",
                            "label": "Centrer overskrift",
                            "name": "header_center",
                            "type": "true_false",
                            "instructions": "",
                            "required": 0,
                            "conditional_logic": 0,
                            "wrapper": {
                                "width": "25",
                                "class": "",
                                "id": ""
                            },
                            "message": "",
                            "default_value": 0,
                            "ui": 0,
                            "ui_on_text": "",
                            "ui_off_text": ""
                        },
                        {
                            "key": "field_5eff001066c1b",
                            "label": "Baggrundsfarve",
                            "name": "bg",
                            "type": "select",
                            "instructions": "Vælg sektionens baggrundsfarve.",
                            "required": 0,
                            "conditional_logic": 0,
                            "wrapper": {
                                "width": "50",
                                "class": "",
                                "id": ""
                            },
                            "choices": {
                                "none": "Ingen"
                            },
                            "default_value": "none",
                            "allow_null": 0,
                            "multiple": 0,
                            "ui": 0,
                            "ajax": 0,
                            "return_format": "value",
                            "placeholder": ""
                        },
                        {
                            "key": "field_5eff001066c1c",
                            "label": "Margin",
                            "name": "margin",
                            "type": "select",
                            "instructions": "Vælg om sektionen skal have margin i top, bund, begge eller ingen.",
                            "required": 0,
                            "conditional_logic": 0,
                            "wrapper": {
                                "width": "50",
                                "class": "",
                                "id": ""
                            },
                            "choices": {
                                "none": "Ingen",
                                "top": "Top",
                                "bottom": "Bund",
                                "both": "Begge"
                            },
                            "default_value": "none",
                            "allow_null": 0,
                            "multiple": 0,
                            "ui": 0,
                            "ajax": 0,
                            "return_format": "value",
                            "placeholder": ""
                        },
                        {
                            "key": "field_5eff001066c1d",
                            "label": "Lokationer",
                            "name": "",
                            "type": "tab",
                            "instructions": "",
                            "required": 0,
                            "conditional_logic": 0,
                            "wrapper": {
                                "width": "",
                                "class": "",
                                "id": ""
                            },
                            "placement": "top",
                            "endpoint": 0
                        },
                        {
                            "key": "field_5eff001066c1e",
                            "label": "Lokationer",
                            "name": "locations",
                            "type": "repeater",
                            "instructions": "",
                            "required": 0,
                            "conditional_logic": 0,
                            "wrapper": {
                                "width": "",
                                "class": "",
                                "id": ""
                            },
                            "collapsed": "",
                            "min": 0,
                            "max": 0,
                            "layout": "block",
                            "button_label": "Tilføj lokation",
                            "sub_fields": [
                                {
                                    "key": "field_5eff007466c24",
                                    "label": "Lokation",
                                    "name": "google_maps",
                                    "type": "google_map",
                                    "instructions": "",
                                    "required": 0,
                                    "conditional_logic": 0,
                                    "wrapper": {
                                        "width": "",
                                        "class": "",
                                        "id": ""
                                    },
                                    "center_lat": "",
                                    "center_lng": "",
                                    "zoom": "",
                                    "height": 0
                                }
                            ]
                        }
                    ],
                    "min": "",
                    "max": ""
                }
            },
            "button_label": "Tilføj Layout",
            "min": "",
            "max": ""
        }
    ],
    "location": [
        [
            {
                "param": "page_template",
                "operator": "==",
                "value": "page-layouts.php"
            }
        ],
        [
            {
                "param": "post_type",
                "operator": "==",
                "value": "testimonial"
            }
        ]
    ],
    "menu_order": 1,
    "position": "normal",
    "style": "seamless",
    "label_placement": "top",
    "instruction_placement": "label",
    "hide_on_screen": [
        "the_content",
        "excerpt",
        "discussion",
        "comments",
        "revisions",
        "slug",
        "author",
        "format",
        "featured_image",
        "categories",
        "tags",
        "send-trackbacks"
    ],
    "active": 1,
    "description": "",
    "modified": 1596546811
}